Lab2/simulation/qsim/MEGA_Sorokin_SM.msim.vcd
$comment
	File created using the following command:
		vcd file MEGA_Sorokin_SM.msim.vcd -direction
$end
$date
	Thu Jun 11 14:13:40 2026
$end
$version
	ModelSim Version 10.1d
$end
$timescale
	1ps
$end
$scope module MEGA_Sorokin_SM_vlg_vec_tst $end
$var reg 1 ! x1 $end
$var reg 1 " x2 $end
$var reg 1 # x3 $end
$var reg 1 $ x4 $end
$var reg 1 % x5 $end
$var reg 1 & x6 $end
$var reg 1 ' x7 $end
$var reg 1 ( x8 $end
$var reg 1 ) x9 $end
$var reg 1 * x10 $end
$var reg 1 + x11 $end
$var reg 1 , x12 $end
$var reg 1 - x13 $end
$var reg 1 . x14 $end
$var reg 1 / x15 $end
$var reg 1 0 y1 $end
$var reg 1 1 y2 $end
$var reg 1 2 y3 $end
$var reg 1 3 y4 $end
$var reg 1 4 y5 $end
$var reg 1 5 y6 $end
$var reg 1 6 y7 $end
$var reg 1 7 y8 $end
$var reg 1 8 y9 $end
$var reg 1 9 y10 $end
$var reg 1 : y11 $end
$var reg 1 ; y12 $end
$var reg 1 < y13 $end
$var reg 1 = y14 $end
$var reg 1 > y15 $end
$var wire 1 ? z1 $end
$var wire 1 @ z2 $end
$var wire 1 A z3 $end
$var wire 1 B z4 $end
$var wire 1 C z5 $end
$var wire 1 D z6 $end
$var wire 1 E z7 $end
$var wire 1 F z8 $end
$var wire 1 G z9 $end
$var wire 1 H z10 $end
$var wire 1 I z11 $end
$var wire 1 J z12 $end
$var wire 1 K z13 $end
$var wire 1 L z14 $end
$var wire 1 M z15 $end
$var wire 1 N z_cout $end
$var wire 1 O sampler $end
$scope module i1 $end
$var wire 1 P gnd $end
$var wire 1 Q vcc $end
$var wire 1 R unknown $end
$var tri1 1 S devclrn $end
$var tri1 1 T devpor $end
$var tri1 1 U devoe $end
$var wire 1 V z1~output_o $end
$var wire 1 W z2~output_o $end
$var wire 1 X z3~output_o $end
$var wire 1 Y z4~output_o $end
$var wire 1 Z z5~output_o $end
$var wire 1 [ z6~output_o $end
$var wire 1 \ z7~output_o $end
$var wire 1 ] z8~output_o $end
$var wire 1 ^ z9~output_o $end
$var wire 1 _ z11~output_o $end
$var wire 1 ` z12~output_o $end
$var wire 1 a z13~output_o $end
$var wire 1 b z10~output_o $end
$var wire 1 c z14~output_o $end
$var wire 1 d z15~output_o $end
$var wire 1 e z_cout~output_o $end
$var wire 1 f x1~input_o $end
$var wire 1 g y1~input_o $end
$var wire 1 h inst|LPM_ADD_SUB_component|auto_generated|sum_eqn[0]~0_combout $end
$var wire 1 i y2~input_o $end
$var wire 1 j x2~input_o $end
$var wire 1 k inst12|LPM_ADD_SUB_component|auto_generated|sum_eqn[0]~0_combout $end
$var wire 1 l inst12|LPM_ADD_SUB_component|auto_generated|carry_eqn[0]~0_combout $end
$var wire 1 m x3~input_o $end
$var wire 1 n y3~input_o $end
$var wire 1 o inst13|LPM_ADD_SUB_component|auto_generated|sum_eqn[0]~0_combout $end
$var wire 1 p x4~input_o $end
$var wire 1 q inst13|LPM_ADD_SUB_component|auto_generated|carry_eqn[0]~0_combout $end
$var wire 1 r y4~input_o $end
$var wire 1 s inst14|LPM_ADD_SUB_component|auto_generated|carry_eqn[0]~0_combout $end
$var wire 1 t x5~input_o $end
$var wire 1 u y5~input_o $end
$var wire 1 v y6~input_o $end
$var wire 1 w x6~input_o $end
$var wire 1 x inst15|LPM_ADD_SUB_component|auto_generated|carry_eqn[0]~0_combout $end
$var wire 1 y inst16|LPM_ADD_SUB_component|auto_generated|carry_eqn[0]~0_combout $end
$var wire 1 z y7~input_o $end
$var wire 1 { x7~input_o $end
$var wire 1 | y8~input_o $end
$var wire 1 } x8~input_o $end
$var wire 1 ~ inst17|LPM_ADD_SUB_component|auto_generated|carry_eqn[0]~0_combout $end
$var wire 1 !! y9~input_o $end
$var wire 1 "! x9~input_o $end
$var wire 1 #! inst18|LPM_ADD_SUB_component|auto_generated|carry_eqn[0]~0_combout $end
$var wire 1 $! x11~input_o $end
$var wire 1 %! y11~input_o $end
$var wire 1 &! x10~input_o $end
$var wire 1 '! y10~input_o $end
$var wire 1 (! inst20|LPM_ADD_SUB_component|auto_generated|carry_eqn[0]~0_combout $end
$var wire 1 )! inst20|LPM_ADD_SUB_component|auto_generated|carry_eqn[0]~1_combout $end
$var wire 1 *! inst20|LPM_ADD_SUB_component|auto_generated|carry_eqn[0]~2_combout $end
$var wire 1 +! x12~input_o $end
$var wire 1 ,! y12~input_o $end
$var wire 1 -! inst21|LPM_ADD_SUB_component|auto_generated|carry_eqn[0]~0_combout $end
$var wire 1 .! inst22|LPM_ADD_SUB_component|auto_generated|sum_eqn[0]~0_combout $end
$var wire 1 /! x13~input_o $end
$var wire 1 0! y13~input_o $end
$var wire 1 1! inst22|LPM_ADD_SUB_component|auto_generated|carry_eqn[0]~0_combout $end
$var wire 1 2! inst20|LPM_ADD_SUB_component|auto_generated|sum_eqn[0]~0_combout $end
$var wire 1 3! x14~input_o $end
$var wire 1 4! inst24|LPM_ADD_SUB_component|auto_generated|carry_eqn[0]~0_combout $end
$var wire 1 5! y14~input_o $end
$var wire 1 6! y15~input_o $end
$var wire 1 7! x15~input_o $end
$var wire 1 8! inst25|LPM_ADD_SUB_component|auto_generated|carry_eqn[0]~0_combout $end
$var wire 1 9! inst23|LPM_ADD_SUB_component|auto_generated|carry_eqn[0]~0_combout $end
$var wire 1 :! inst14|LPM_ADD_SUB_component|auto_generated|sum_eqn [0] $end
$var wire 1 ;! inst17|LPM_ADD_SUB_component|auto_generated|sum_eqn [0] $end
$var wire 1 <! inst24|LPM_ADD_SUB_component|auto_generated|sum_eqn [0] $end
$var wire 1 =! inst18|LPM_ADD_SUB_component|auto_generated|sum_eqn [0] $end
$var wire 1 >! inst25|LPM_ADD_SUB_component|auto_generated|sum_eqn [0] $end
$var wire 1 ?! inst15|LPM_ADD_SUB_component|auto_generated|sum_eqn [0] $end
$var wire 1 @! inst21|LPM_ADD_SUB_component|auto_generated|sum_eqn [0] $end
$var wire 1 A! inst19|LPM_ADD_SUB_component|auto_generated|sum_eqn [0] $end
$var wire 1 B! inst23|LPM_ADD_SUB_component|auto_generated|sum_eqn [0] $end
$var wire 1 C! inst16|LPM_ADD_SUB_component|auto_generated|sum_eqn [0] $end
$var wire 1 D! inst20|LPM_ADD_SUB_component|auto_generated|sum_eqn [0] $end
$upscope $end
$upscope $end
$enddefinitions $end
#0
$dumpvars
1!
1"
0#
1$
1%
1&
1'
0(
1)
0*
1+
1,
0-
1.
1/
00
11
02
03
04
05
16
17
08
09
0:
1;
1<
1=
1>
1?
0@
1A
1B
1C
1D
0E
0F
0G
1H
1I
0J
0K
1L
1M
1N
xO
0P
1Q
xR
1S
1T
1U
1V
0W
1X
1Y
1Z
1[
0\
0]
0^
1_
0`
0a
1b
1c
1d
1e
1f
0g
1h
1i
1j
0k
1l
0m
0n
1o
1p
0q
0r
0s
1t
0u
0v
1w
0x
0y
1z
1{
1|
0}
1~
0!!
1"!
1#!
1$!
0%!
0&!
0'!
0(!
0)!
0*!
1+!
1,!
0-!
0.!
0/!
10!
11!
02!
13!
14!
15!
16!
17!
18!
19!
1:!
0;!
0<!
0=!
1>!
1?!
1@!
0A!
1B!
1C!
1D!
$end
#5000
0!
0"
0$
0&
0'
1(
1*
1-
10
12
13
06
07
1:
0=
0>
0f
0j
0p
0w
0{
1}
1&!
1/!
1g
1n
1r
0z
0|
1%!
05!
06!
0O
0l
0~
12!
1)!
1q
1-!
1k
0C!
1<!
0o
0@!
0>!
0B!
0q
0#!
1*!
1s
1W
0[
1a
0X
0_
0c
0d
1@
0D
1K
0A
0I
0L
0M
1o
1=!
0D!
0:!
1.!
0s
0*!
1x
1X
1]
0b
0Y
1`
1A
1F
0H
0B
1J
1:!
1D!
1A!
1@!
0?!
0x
1Y
1b
1^
1_
0Z
1B
1H
1G
1I
0C
1?!
0@!
1C!
1Z
0_
1[
1C
0I
1D
0C!
0[
0D
#10000
0%
0.
0/
01
18
0<
1!
1$
1&
02
03
16
17
1=
0t
03!
07!
0i
1!!
00!
1f
1p
1w
0n
0r
1z
1|
15!
1O
1*!
1#!
0?!
09!
1B!
0D!
0A!
0<!
0h
1C!
0o
1;!
0=!
0Z
0e
1d
0b
0^
0a
0V
1[
0X
1\
0]
0C
0N
1M
0H
0G
0K
0?
1D
0A
1E
0F
1@!
1A!
1_
1^
1I
1G
#15000
1#
0+
0,
14
15
19
0;
1"
0*
0-
1>
1%
11
08
12
13
06
0=
1m
0$!
0+!
1u
1v
1'!
0,!
1j
0&!
0/!
16!
1t
1i
0!!
1n
1r
0z
05!
0O
1q
01!
1x
1y
1l
04!
1s
08!
0@!
0C!
1<!
19!
0B!
0A!
0:!
0;!
1>!
0_
0[
1a
1e
0d
0^
0Y
0\
1c
0I
0D
1K
1N
0M
0G
0B
0E
1L
1:!
0<!
1C!
1;!
1o
0>!
1?!
09!
1B!
1Y
0a
1[
1\
1X
0c
1Z
0e
1d
1B
0K
1D
1E
1A
0L
1C
0N
1M
#20000
0)
0(
00
1.
1/
1<
0#
1,
05
1;
0"
1-
0%
03
0"!
0}
0g
13!
17!
10!
0m
1+!
0v
1,!
0j
1/!
0t
0r
1O
0*!
0#!
0l
14!
11!
1D!
1A!
1=!
1h
1>!
19!
0B!
0o
0C!
0?!
0:!
0-!
0q
18!
1b
1^
1]
1V
1c
1e
0d
0X
0[
0Z
0Y
1H
1G
1F
1?
1L
1N
0M
0A
0D
0C
0B
1@!
0A!
1o
0>!
1<!
0s
1_
0^
1X
0c
1a
1I
0G
1A
0L
1K
0.!
1:!
1B!
0x
0`
1Y
1d
0J
1B
1M
1?!
0y
1Z
1C
1C!
1[
1D
0;!
0\
0E
#25000
1'
0:
0!
0$
0&
1*
0>
02
16
1=
1)
0.
0/
1#
15
1"
1%
13
1{
0%!
0f
0p
0w
1&!
06!
0n
1z
15!
1"!
03!
07!
1m
1v
1j
1t
1r
0O
1~
1l
02!
1(!
1x
0@!
0k
0h
09!
1A!
0?!
1#!
1q
1y
0_
0W
0V
0e
1^
0Z
0I
0@
0?
0N
1G
0C
0=!
0o
0D!
1@!
0C!
1*!
1s
0]
0X
0b
1_
0[
0F
0A
0H
1I
0D
1D!
0A!
0:!
1;!
1b
0^
0Y
1\
1H
0G
0B
1E
1?!
1Z
1C
#30000
1+
09
0,
0;
0'
1!
1$
1&
12
06
0)
0#
0"
03
1$!
0'!
0+!
0,!
0{
1f
1p
1w
1n
0z
0"!
0m
0j
0r
1O
1-!
12!
0(!
01!
0~
0l
0*!
0@!
1k
1h
1C!
0D!
1A!
0-!
0#!
0q
0_
1W
1V
1[
0b
1^
0I
1@
1?
1D
0H
1G
1.!
1D!
1@!
0<!
1=!
1o
0s
1`
1b
1_
0a
1]
1X
1J
1H
1I
0K
1F
1A
0.!
0A!
1:!
0`
0^
1Y
0J
0G
1B
0?!
0Z
0C
#35000
07
04
1(
0<
1:
0*
0=
1.
1/
0%
0+
1;
0!
0&
16
1#
0|
0u
1}
00!
1%!
0&!
05!
13!
17!
0t
0$!
1,!
0f
0w
1z
1m
0O
0x
04!
02!
0)!
1~
1q
1<!
19!
0B!
1.!
0h
0C!
0;!
0o
0y
08!
1#!
1s
1a
1e
0d
1`
0V
0[
0\
0X
1K
1N
0M
1J
0?
0D
0E
0A
1C!
1>!
0D!
0=!
0:!
0~
1[
1c
0b
0]
0Y
1D
1L
0H
0F
0B
1;!
09!
1B!
1A!
1?!
0#!
1\
0e
1d
1^
1Z
1E
0N
1M
1G
1C
1=!
1]
1F
0A!
0^
0G
#40000
18
10
0-
1>
19
1,
0$
1"
13
17
0(
1*
1=
0.
0/
1%
1+
1!
06
0#
1!!
1g
0/!
16!
1'!
1+!
0p
1j
1r
1|
0}
1&!
15!
03!
07!
1t
1$!
1f
0z
0m
1O
1l
1)!
1(!
11!
1x
1-!
0q
1A!
0<!
0.!
0?!
0@!
0;!
1o
1q
1y
0s
1^
0a
0`
0Z
0_
0\
1X
1G
0K
0J
0C
0I
0E
1A
0o
1@!
1<!
0C!
1.!
1:!
1s
0x
0X
1_
1a
0[
1`
1Y
0A
1I
1K
0D
1J
1B
0:!
1;!
1?!
1x
0y
0Y
1\
1Z
0B
1E
1C
0?!
1C!
1y
0Z
1[
0C
1D
0C!
0;!
0[
0\
0D
0E
1;!
1\
1E
#45000
05
00
1-
09
0,
1$
07
0=
0!
0v
0g
1/!
0'!
0+!
1p
0|
05!
0f
0O
0y
14!
12!
0(!
1C!
0k
0<!
0.!
1:!
0=!
0>!
1[
0W
0a
0`
1Y
0]
0c
1D
0@
0K
0J
1B
0F
0L
0;!
1>!
1D!
0@!
0\
1c
1b
0_
0E
1L
1H
0I
#50000
01
1<
0:
1&
0"
03
0%
0+
16
1#
15
10
0-
1,
0$
17
1=
1!
0i
10!
0%!
1w
0j
0r
0t
0$!
1z
1m
1v
1g
0/!
1+!
0p
1|
15!
1f
1O
0l
0-!
1y
0s
0x
18!
1k
1?!
1;!
1o
1.!
1=!
0>!
1~
1W
1Z
1\
1X
1`
1]
0c
1@
1C
1E
1A
1J
1F
0L
0o
0.!
0;!
0?!
0C!
19!
0B!
1#!
0X
0`
0\
0Z
0[
1e
0d
0A
0J
0E
0C
0D
1N
0M
0=!
1*!
0]
0F
0D!
0A!
0b
0^
0H
0G
1@!
1_
1I
#55000
1)
14
0;
0>
1(
0*
19
11
1"
13
1%
05
0,
1$
07
0=
1"!
1u
0,!
06!
1}
0&!
1'!
1i
1j
1r
1t
0v
0+!
1p
0|
05!
0O
1x
01!
1l
1s
0y
08!
1A!
09!
1B!
1C!
1>!
1y
04!
0~
1^
0e
1d
1[
1c
1G
0N
1M
1D
1L
0C!
1<!
1o
1?!
1;!
0B!
1~
0#!
0[
1a
1X
1Z
1\
0d
0D
1K
1A
1C
1E
0M
0;!
0>!
1=!
1#!
0\
0c
1]
0E
0L
1F
0=!
0A!
0]
0^
0F
0G
1A!
1^
1G
#60000
1'
02
08
1/
1:
1+
06
0#
1-
0!
0)
0(
01
0"
03
15
1,
0$
17
1=
1{
0n
0!!
17!
1%!
1$!
0z
0m
1/!
0f
0"!
0}
0i
0j
0r
1v
1+!
0p
1|
15!
1O
0q
0*!
1-!
14!
0l
0s
1D!
1B!
0<!
0k
1h
1C!
1.!
1>!
11!
18!
1b
1d
0a
0W
1V
1[
1`
1c
1H
1M
0K
0@
1?
1D
1J
1L
0:!
0@!
0.!
0>!
0o
0?!
0Y
0_
0`
0c
0X
0Z
0B
0I
0J
0L
0A
0C
1<!
19!
0B!
1a
1e
0d
1K
1N
0M
#65000
1.
0<
0&
04
1>
1*
0%
12
0:
16
1(
1"
05
07
0=
13!
00!
0w
0u
16!
1&!
0t
1n
0%!
1z
1}
1j
0v
0|
05!
0O
0y
0x
02!
1(!
0-!
0<!
1B!
1o
1@!
1;!
1k
1-!
01!
0a
1d
1X
1_
1\
1W
0K
1M
1A
1I
1E
1@
0;!
0C!
0D!
0@!
1.!
11!
04!
0\
0[
0b
0_
1`
0E
0D
0H
0I
1J
0.!
1<!
14!
08!
0`
1a
0J
1K
0<!
1>!
18!
0a
1c
0K
1L
0>!
0B!
0c
0d
0L
0M
1B!
1d
1M
#70000
00
0/
1#
11
13
02
1:
06
0"
17
0g
07!
1m
1i
1r
0n
1%!
0z
0j
1|
1O
0~
0h
0B!
1:!
1@!
1;!
1=!
0V
0d
1Y
1_
1\
1]
0?
0M
1B
1I
1E
1F
0=!
0]
0F
#75000
1;
0'
0-
0,
1$
0.
1<
14
0>
0*
15
1=
0#
16
1"
1,!
0{
0/!
0+!
1p
03!
10!
1u
06!
0&!
1v
15!
0m
1z
1j
0O
1s
12!
0(!
1l
0:!
1?!
09!
1B!
1C!
0o
0k
1x
0Y
1Z
0e
1d
1[
0X
0W
0B
1C
0N
1M
1D
0A
0@
0?!
1D!
0@!
1o
1y
0Z
1b
0_
1X
0C
1H
0I
1A
0C!
1~
0[
0D
0;!
0\
0E
1=!
1]
1F
#80000
18
1!
03
0:
07
0;
1'
1.
04
1*
0=
1#
0"
1!!
1f
0r
0%!
0|
0,!
1{
13!
0u
1&!
05!
1m
0j
1O
1*!
0l
0s
0-!
01!
0x
02!
1(!
1q
0D!
0A!
1k
1h
1:!
1@!
0=!
1.!
1;!
1?!
0o
1-!
0q
04!
0y
1s
0b
0^
1W
1V
1Y
1_
0]
1`
1\
1Z
0X
0H
0G
1@
1?
1B
1I
0F
1J
1E
1C
0A
0@!
1o
0?!
0.!
1<!
1C!
1D!
0:!
0s
08!
0_
1X
0Z
0`
1a
1[
1b
0Y
0I
1A
0C
0J
1K
1D
1H
0B
1.!
1:!
1>!
0;!
1?!
1`
1Y
1c
0\
1Z
1J
1B
1L
0E
1C
0?!
0B!
0Z
0d
0C
0M
#85000
09
1)
1&
0(
1/
1,
0$
0<
06
0!
1:
17
0'
14
0*
0'!
1"!
1w
0}
17!
1+!
0p
00!
0z
0f
1%!
1|
0{
1u
0&!
0O
0)!
0(!
1y
11!
0~
1A!
0C!
1B!
0.!
0:!
0<!
0h
1@!
1?!
0*!
0#!
1^
0[
1d
0`
0Y
0a
0V
1_
1Z
1G
0D
1M
0J
0B
0K
0?
1I
1C
1;!
1<!
1=!
1\
1a
1]
1E
1K
1F
0@!
0A!
0_
0^
0I
0G
#90000
1>
0.
1=
1$
0:
1'
04
1*
16!
03!
15!
1p
0%!
1{
0u
1&!
1O
0-!
1~
12!
1)!
19!
0B!
1:!
1@!
0;!
0?!
01!
1#!
1*!
1e
0d
1Y
1_
0\
0Z
1N
0M
1B
1I
0E
0C
1.!
0=!
0D!
1-!
1`
0]
0b
1J
0F
0H
0<!
1A!
0@!
11!
0a
1^
0_
0K
1G
0I
0.!
0`
0J
1<!
1a
1K
#95000
0+
1%
01
12
1-
08
13
0#
1"
19
0)
1(
0/
0,
1<
16
07
1.
0$
1:
14
0$!
1t
0i
1n
1/!
0!!
1r
0m
1j
1'!
0"!
1}
07!
0+!
10!
1z
0|
13!
0p
1%!
1u
0O
1x
14!
0*!
02!
1(!
01!
18!
1D!
09!
1B!
1.!
1;!
0>!
1b
0e
1d
1`
1\
0c
1H
0N
1M
1J
1E
0L
1C!
1>!
0D!
0<!
19!
0B!
1[
1c
0b
0a
1e
0d
1D
1L
0H
0K
1N
0M
