Lab1/simulation/qsim/CL_Project_Sorokin_Lab1.msim.vcd
$comment
	File created using the following command:
		vcd file CL_Project_Sorokin_Lab1.msim.vcd -direction
$end
$date
	Thu Jun 11 13:47:00 2026
$end
$version
	ModelSim Version 10.1d
$end
$timescale
	1ps
$end
$scope module CL_Project_Sorokin_Lab1_vlg_vec_tst $end
$var reg 1 ! x1 $end
$var reg 1 " x1_1 $end
$var reg 1 # x2 $end
$var reg 1 $ x2_1 $end
$var reg 1 % x3 $end
$var reg 1 & x3_1 $end
$var wire 1 ' y $end
$var wire 1 ( y_1 $end
$var wire 1 ) sampler $end
$scope module i1 $end
$var wire 1 * gnd $end
$var wire 1 + vcc $end
$var wire 1 , unknown $end
$var tri1 1 - devclrn $end
$var tri1 1 . devpor $end
$var tri1 1 / devoe $end
$var wire 1 0 x3~input_o $end
$var wire 1 1 x2~input_o $end
$var wire 1 2 x2_1~input_o $end
$var wire 1 3 x3_1~input_o $end
$var wire 1 4 y~output_o $end
$var wire 1 5 y_1~output_o $end
$var wire 1 6 x1~input_o $end
$var wire 1 7 x1_1~input_o $end
$upscope $end
$upscope $end
$enddefinitions $end
#0
$dumpvars
0!
0"
0#
0$
0%
0&
0'
0(
x)
0*
1+
x,
1-
1.
1/
00
01
02
03
04
05
06
07
$end
#10000
1!
1"
0)
16
17
14
15
1'
1(
#20000
1#
1$
0!
0"
11
12
1)
06
07
04
05
0'
0(
#30000
1!
1"
0)
16
17
14
15
1'
1(
#40000
1%
1&
0#
0$
0!
0"
10
13
01
02
1)
06
07
04
05
0'
0(
#50000
1!
1"
0)
16
17
14
15
1'
1(
#60000
1#
1$
0!
0"
11
12
1)
06
07
04
05
0'
0(
#70000
1!
1"
0)
16
17
14
15
1'
1(
